{
  "count": 435,
  "next": "https://flow.pluralsight.com/v3/customer/core/user_alias/?integration=9398&limit=5&offset=5",
  "previous": null,
  "results": [
    {
      "id": 8468767,
      "username": "600865c0cc7af1006f4e07ea",
      "name": "Sai Kolluri",
      "email": "skolluri@tigerconnect.com",
      "integration": {
        "id": 9398,
        "name": "JIRA - TigerConnect",
        "vendor_meta": {
          "name": "jira",
          "title": "Jira Cloud & Self-Managed",
          "services": [
            {
              "name": "ticket",
              "display": "Tickets"
            }
          ],
          "icon": "vendors/jira",
          "auth_types": ["oauth1", "access_token", "userpass"],
          "is_cloud": true,
          "enable_webhooks": false,
          "allow_multiple_accounts": true,
          "oauth_enabled": true
        },
        "audit_created_by": 12149598,
        "org": 7779
      },
      "org_id": 7779,
      "vendor_type": "jira",
      "external_id": "600865c0cc7af1006f4e07ea",
      "created_at": "2022-07-20T18:08:34.928000",
      "avatar_url": "https://secure.gravatar.com/avatar/074f27b0e4f407cf383c554f5e243846.jpg?s=96&d=retro&r=g",
      "created_from_group": false,
      "apex_user": {
        "id": 7987064,
        "name": "Sai Kolluri",
        "email": "skolluri@tigerconnect.com",
        "avatar_url": "https://secure.gravatar.com/avatar/074f27b0e4f407cf383c554f5e243846.jpg?s=96&d=retro&r=g"
      }
    },
    {
      "id": 8470058,
      "username": "62be220c37780d89a352a26c",
      "name": "Diego Trías",
      "email": "dtrias@tigerconnect.com",
      "integration": {
        "id": 9398,
        "name": "JIRA - TigerConnect",
        "vendor_meta": {
          "name": "jira",
          "title": "Jira Cloud & Self-Managed",
          "services": [
            {
              "name": "ticket",
              "display": "Tickets"
            }
          ],
          "icon": "vendors/jira",
          "auth_types": ["oauth1", "access_token", "userpass"],
          "is_cloud": true,
          "enable_webhooks": false,
          "allow_multiple_accounts": true,
          "oauth_enabled": true
        },
        "audit_created_by": 12149598,
        "org": 7779
      },
      "org_id": 7779,
      "vendor_type": "jira",
      "external_id": "62be220c37780d89a352a26c",
      "created_at": "2022-07-21T15:43:19.485000",
      "avatar_url": "https://secure.gravatar.com/avatar/f06f9ce1af59b17cbff92208cc421baf.jpg?s=96&d=retro&r=g",
      "created_from_group": false,
      "apex_user": {
        "id": 7987131,
        "name": "Diego Trías",
        "email": "dtrias@tigerconnect.com",
        "avatar_url": "https://secure.gravatar.com/avatar/f06f9ce1af59b17cbff92208cc421baf.jpg?s=96&d=retro&r=g"
      }
    },
    {
      "id": 8467521,
      "username": "6061b4e190e3950069a57df8",
      "name": "Hélio Cardoso",
      "email": "hcardoso@tigerconnect.com",
      "integration": {
        "id": 9398,
        "name": "JIRA - TigerConnect",
        "vendor_meta": {
          "name": "jira",
          "title": "Jira Cloud & Self-Managed",
          "services": [
            {
              "name": "ticket",
              "display": "Tickets"
            }
          ],
          "icon": "vendors/jira",
          "auth_types": ["oauth1", "access_token", "userpass"],
          "is_cloud": true,
          "enable_webhooks": false,
          "allow_multiple_accounts": true,
          "oauth_enabled": true
        },
        "audit_created_by": 12149598,
        "org": 7779
      },
      "org_id": 7779,
      "vendor_type": "jira",
      "external_id": "6061b4e190e3950069a57df8",
      "created_at": "2022-07-20T05:24:48.076000",
      "avatar_url": "https://secure.gravatar.com/avatar/2232c253c941b0dd4a4d222f15bff749.jpg?s=96&d=retro&r=g",
      "created_from_group": false,
      "apex_user": {
        "id": 7986167,
        "name": "Hélio Cardoso",
        "email": "hcardoso@tigerconnect.com",
        "avatar_url": "https://secure.gravatar.com/avatar/2232c253c941b0dd4a4d222f15bff749.jpg?s=96&d=retro&r=g"
      }
    },
    {
      "id": 8496638,
      "username": "62be23d0118b20bee2bd0618",
      "name": "Matias Rodriguez",
      "email": "matiasrodriguez@tigerconnect.com",
      "integration": {
        "id": 9398,
        "name": "JIRA - TigerConnect",
        "vendor_meta": {
          "name": "jira",
          "title": "Jira Cloud & Self-Managed",
          "services": [
            {
              "name": "ticket",
              "display": "Tickets"
            }
          ],
          "icon": "vendors/jira",
          "auth_types": ["oauth1", "access_token", "userpass"],
          "is_cloud": true,
          "enable_webhooks": false,
          "allow_multiple_accounts": true,
          "oauth_enabled": true
        },
        "audit_created_by": 12149598,
        "org": 7779
      },
      "org_id": 7779,
      "vendor_type": "jira",
      "external_id": "62be23d0118b20bee2bd0618",
      "created_at": "2022-08-04T22:33:39.406000",
      "avatar_url": "https://secure.gravatar.com/avatar/2b36ec9d82e1feda749982ebe26a8815.jpg?s=96&d=retro&r=g",
      "created_from_group": false,
      "apex_user": {
        "id": 8001849,
        "name": "Matias Rodriguez",
        "email": "matiasrodriguez@tigerconnect.com",
        "avatar_url": "https://secure.gravatar.com/avatar/2b36ec9d82e1feda749982ebe26a8815.jpg?s=96&d=retro&r=g"
      }
    },
    {
      "id": 8506624,
      "username": "600865bf2a6b66006907b124",
      "name": "Todd S. Crook",
      "email": "tcrook@tigerconnect.com",
      "integration": {
        "id": 9398,
        "name": "JIRA - TigerConnect",
        "vendor_meta": {
          "name": "jira",
          "title": "Jira Cloud & Self-Managed",
          "services": [
            {
              "name": "ticket",
              "display": "Tickets"
            }
          ],
          "icon": "vendors/jira",
          "auth_types": ["oauth1", "access_token", "userpass"],
          "is_cloud": true,
          "enable_webhooks": false,
          "allow_multiple_accounts": true,
          "oauth_enabled": true
        },
        "audit_created_by": 12149598,
        "org": 7779
      },
      "org_id": 7779,
      "vendor_type": "jira",
      "external_id": "600865bf2a6b66006907b124",
      "created_at": "2022-08-10T19:23:14.217000",
      "avatar_url": "https://secure.gravatar.com/avatar/4484cb0ebb0e0e7f2e6d800d43dffded.jpg?s=96&d=retro&r=g",
      "created_from_group": false,
      "apex_user": {
        "id": 8005238,
        "name": "Todd S. Crook",
        "email": "tcrook@tigerconnect.com",
        "avatar_url": "https://secure.gravatar.com/avatar/4484cb0ebb0e0e7f2e6d800d43dffded.jpg?s=96&d=retro&r=g"
      }
    }
  ]
}
